{
  "model": "students/me/preferredSpecialty",
  "settings": {
    "i18n": {
      "el": {
        "Use this field if you want to inform office of the registrar for something more about your request": "Χρησιμοποιήστε το πεδίο αυτό για να δηλώσετε κάτι επιπλέον σχετικά με την αίτηση σας",
        "Title": "Τίτλος Αίτησης",
        "Notes": "Σχόλια",
        "Academic period": "Ακαδημαϊκή περίοδος",
        "I wish to follow the specialty": "Επιθυμώ να ακολουθήσω την κατεύθυνση",
        "Choose the specialty you wish to follow": "Επιλέξτε την κατεύθυνση που θα θέλατε να ακολουθήσετε"
      }
    }
  },
  "components": [
    {
      "type": "fieldset",
      "components": [
        {
          "columns": [
            {
              "components": [
                {
                  "label": "Title",
                  "labelPosition": "top",
                  "widget": {
                    "type": "input"
                  },
                  "validate": {
                    "required": false,
                    "maxLength": 512
                  },
                  "key": "name",
                  "type": "textfield",
                  "input": true,
                  "disabled": false
                }
              ],
              "width": 12
            },
            {
              "components": [
                {
                  "label": "Academic Year",
                  "labelPosition": "top",
                  "key": "academicYear.alternateName",
                  "type": "textfield",
                  "disabled": true,
                  "widget": {
                    "type": "input"
                  }
                }
              ],
              "width": 3
            },
            {
              "components": [
                {
                  "label": "Academic period",
                  "labelPosition": "top",
                  "widget": {
                    "type": "input"
                  },
                  "key": "academicPeriod.name",
                  "type": "textfield",
                  "input": true,
                  "disabled": true
                }
              ],
              "width": 3
            },
            {
                "components": [
                  {
                    "label": "Study Program",
                    "labelPosition": "top",
                    "key": "studyProgram.name",
                    "widget": {
                      "type": "input"
                    },
                    "type": "textfield",
                    "input": true,
                    "disabled": true
                  }
                ],
                "width": 6
            },
            {
                "components": [
                  {
                    "label": "I wish to follow the specialty",
                    "labelPosition": "top",
                    "widget": "choicesjs",
                    "dataSrc": "url",
                    "data": {
                      "url": "students/me/availableSpecialties?$filter=specialty ne -1",
                      "headers": []
                    },
                    "template": "{{ item.name }}",
                    "selectValues": "value",
                    "key": "specialty",
                    "type": "select",
                    "input": true,
                    "disabled": false,
                    "searchEnabled": false,
                    "validate": {
                      "required": true
                    },
                    "description": "Choose the specialty you wish to follow"
                  }
                ],
                "width": 6
            },
            {
              "components": [
                {
                  "label": "Notes",
                  "labelPosition": "top",
                  "widget": {
                    "type": "input"
                  },
                  "validate": {
                    "required": false,
                    "maxLength": 512
                  },
                  "key": "description",
                  "type": "textarea",
                  "input": true,
                  "description": "Use this field if you want to inform office of the registrar for something more about your request"
                }
              ],
              "width": 12
            }
          ],
          "customClass": "text-dark formio-component-select-wrap",
          "hideLabel": true,
          "type": "columns",
          "input": false
        }
      ]
    },
    {
      "type": "button",
      "label": "Submit",
      "key": "submit",
      "disableOnInvalid": true,
      "input": true
    }
  ],
  "width": 3
}
